{
  "mhs": [
    {
      "name": "Laili Septiandi",
      "npm": 120809,
      "prodi": "informatika",
      "id": 7
    },
    {
      "name": "isnaini setiawan",
      "npm": "187877325",
      "prodi": "akutansi",
      "id": 8
    },
    {
      "name": "laili jamil",
      "npm": "1290",
      "prodi": "informatika",
      "id": 9
    }
  ]
}